<?xml version="1.0" encoding="utf-8"?>
<!-- Generator: Adobe Illustrator 25.2.0, SVG Export Plug-In . SVG Version: 6.00 Build 0)  -->
<svg version="1.1" id="Layer_1" xmlns="http://www.w3.org/2000/svg" xmlns:xlink="http://www.w3.org/1999/xlink" x="0px" y="0px"
	 viewBox="0 0 124 124" style="enable-background:new 0 0 124 124;" width="124" height="124" xml:space="preserve">
<style type="text/css">
	.st0{opacity:0.8; fill:#FF2A00;}
	.st1{fill:#FFFFFF;}
</style>
	<circle class="st0" cx="62" cy="62" r="62"/>
	<path class="st1" d="M44.5,64.9c-0.5,0.9-1.2,1.5-2,2c-0.9,0.5-1.9,0.7-3.1,0.7h-4.3V56.4h4.3c1.2,0,2.3,0.2,3.2,0.7
		c0.9,0.5,1.6,1.1,2,2c0.5,0.9,0.7,1.8,0.7,2.9S45,64.1,44.5,64.9z M41.6,64.4c0.6-0.6,0.9-1.4,0.9-2.4c0-1-0.3-1.8-0.9-2.4
		c-0.6-0.6-1.4-0.8-2.5-0.8h-1.3v6.5h1.3C40.2,65.2,41,64.9,41.6,64.4z M55.8,67.7l-2.4-4.3h-0.6v4.3H50V56.4h4.7
		c0.9,0,1.7,0.2,2.3,0.5c0.6,0.3,1.1,0.7,1.4,1.3c0.3,0.5,0.5,1.2,0.5,1.8c0,0.8-0.2,1.5-0.7,2.1s-1.1,1-2,1.2l2.7,4.4H55.8z
		 M52.7,61.5h1.7c0.5,0,0.9-0.1,1.2-0.4c0.3-0.2,0.4-0.6,0.4-1.1c0-0.4-0.1-0.8-0.4-1.1c-0.3-0.3-0.7-0.4-1.2-0.4h-1.7V61.5z
		 M70.4,65.6h-4.2l-0.7,2.1h-2.9l4.1-11.2h3.2L74,67.7h-2.9L70.4,65.6z M69.7,63.5l-1.4-4.2l-1.4,4.2H69.7z M87.1,57.3
		c0.9,0.7,1.5,1.6,1.7,2.8h-2.9c-0.2-0.4-0.5-0.7-0.9-1s-0.9-0.4-1.4-0.4c-0.9,0-1.6,0.3-2.1,0.9C81,60.2,80.7,61,80.7,62
		c0,1.1,0.3,1.9,0.8,2.5c0.5,0.6,1.3,0.9,2.3,0.9c0.7,0,1.2-0.2,1.7-0.5c0.5-0.4,0.8-0.9,1-1.5h-3.5v-2h5.7V64
		c-0.2,0.7-0.6,1.3-1,1.8c-0.5,0.6-1.1,1-1.8,1.4c-0.7,0.4-1.6,0.5-2.5,0.5c-1.1,0-2.1-0.2-3-0.7s-1.5-1.2-2-2s-0.7-1.9-0.7-3
		s0.2-2.1,0.7-3c0.5-0.9,1.1-1.6,2-2c0.8-0.5,1.8-0.7,3-0.7C85,56.2,86.1,56.6,87.1,57.3z"/>
</svg>
