<?xml version="1.0" encoding="utf-8"?>
<!-- Generator: Adobe Illustrator 25.2.0, SVG Export Plug-In . SVG Version: 6.00 Build 0)  -->
<svg version="1.1" id="Layer_1" xmlns="http://www.w3.org/2000/svg" xmlns:xlink="http://www.w3.org/1999/xlink" x="0px" y="0px"
	 viewBox="0 0 27 24" style="enable-background:new 0 0 27 24;" xml:space="preserve">
<path id="Shape" d="M3.4,19.7c0,0.5,0.4,0.9,0.8,0.9h21.1c0.9,0,1.7,0.8,1.7,1.7c0,0.9-0.8,1.7-1.7,1.7H4.2C1.9,24,0,22.1,0,19.7
	v-18C0,0.8,0.8,0,1.7,0s1.7,0.8,1.7,1.7V19.7z M8.4,6.9c0-0.9,0.8-1.7,1.7-1.7s1.7,0.8,1.7,1.7s-0.8,1.7-1.7,1.7S8.4,7.8,8.4,6.9z
	 M16.9,12c0,0.9-0.8,1.7-1.7,1.7c-0.9,0-1.7-0.8-1.7-1.7s0.8-1.7,1.7-1.7C16.1,10.3,16.9,11.1,16.9,12z M18.6,15.4
	c0-0.9,0.8-1.7,1.7-1.7s1.7,0.8,1.7,1.7c0,0.9-0.8,1.7-1.7,1.7S18.6,16.4,18.6,15.4z M23.6,5.1c0,0.9-0.8,1.7-1.7,1.7
	s-1.7-0.8-1.7-1.7s0.8-1.7,1.7-1.7S23.6,4.2,23.6,5.1z M6.8,15.4c0-0.9,0.8-1.7,1.7-1.7s1.7,0.8,1.7,1.7c0,0.9-0.8,1.7-1.7,1.7
	S6.8,16.4,6.8,15.4z"/>
</svg>
