<?xml version="1.0" encoding="utf-8"?>
<!-- Generator: Adobe Illustrator 25.2.0, SVG Export Plug-In . SVG Version: 6.00 Build 0)  -->
<svg version="1.1" id="Layer_1" xmlns="http://www.w3.org/2000/svg" xmlns:xlink="http://www.w3.org/1999/xlink" x="0px" y="0px"
	 viewBox="0 0 23 23" style="enable-background:new 0 0 23 23;" xml:space="preserve">
<style type="text/css">
	.st0{fill:#FF2900;}
</style>
<path class="st0" d="M4.5,5c7.9,0.1,13.2,5.3,13.4,13.2L0.9,23c-0.2,0.1-0.5,0-0.7-0.2C0,22.6,0,22.3,0,22.1L4.5,5z M5.7,15.9
	c-0.8,0-1.4,0.6-1.4,1.4c0,0.8,0.6,1.4,1.4,1.4c0.8,0,1.5-0.6,1.4-1.4C7.1,16.5,6.5,15.9,5.7,15.9z M7,0l0.1,0
	C15.3,0.8,22.1,7.4,23,15.5c0.1,0.7-0.4,1.4-1.1,1.6l-2.6,0.7C19,9.5,13.3,3.9,4.9,3.6l0.7-2.5C5.7,0.4,6.4-0.1,7.1,0L7,0z
	 M12.2,13.7c-0.8,0-1.4,0.6-1.4,1.4c0,0.8,0.6,1.4,1.4,1.4c0.8,0,1.4-0.6,1.4-1.4C13.7,14.3,13,13.7,12.2,13.7z M7.9,9.3
	c-0.8,0-1.4,0.6-1.4,1.4c0,0.8,0.6,1.4,1.4,1.4c0.8,0,1.5-0.6,1.4-1.4C9.3,10,8.7,9.3,7.9,9.3z"/>
</svg>
